...............
----------------------------------------------------------------------
Ran 15 tests in 0.038s

OK
Name             Stmts   Miss Branch BrPart  Cover   Missing
------------------------------------------------------------
Collatz.py          34      4     14      2    88%   35->36, 36, 39->40, 40-42
TestCollatz.py      69      0      0      0   100%
------------------------------------------------------------
TOTAL              103      4     14      2    95%
